{
    "check": "✔️",
    "xmark": "❌",
    "loading": "⌛",
    "empty": "⚪",
    "online": "`[Online]`",
    "away": "`[Away]`",
    "dnd": "`[DnD]`", 
    "offline": "`[Offline]`",
    "streaming": "`[Streaming]`"
}